…
``` r
long_data = 
  long_data %>%  
  unnest() %>% 
  janitor::clean_names() %>% 
  gather(key = week, value = data, week_1:week_8) %>% 
  separate(files_name, into = c("arm", "id"), sep = "_") %>% 
  mutate(id = str_replace(id, ".csv",""),
         week = str_replace(week, "week_", ""))

long_data
```

    ## # A tibble: 160 x 4
    ##    arm   id    week   data
    ##    <chr> <chr> <chr> <dbl>
    ##  1 con   01    1      0.2 
    ##  2 con   02    1      1.13
    ##  3 con   03    1      1.77
    ##  4 con   04    1      1.04
    ##  5 con   05    1      0.47
    ##  6 con   06    1      2.37
    ##  7 con   07    1      0.03
    ##  8 con   08    1     -0.08
    ##  9 con   09    1      0.08
    ## 10 con   10    1      2.14
    ## # ... with 150 more rows
…
